{
    "status": "success",
    "result": [{
        "app_build_version": "{app_build_version}",
        "api_key": "{ignore}",
        "timestamp": "{ignore}",
        "app_version": "{app_version}",
        "sdk_version": "{sdk_version}",
        "app_name": "SampleApp",
        "screen_size": "{ignore}",
        "app_bundle_id": "com.med.sample.app",
        "key": "{ignore}",
        "system_time": "{ignore}",
        "os": "ios",
        "language": "{language}",
        "system_date": "{system_date}",
        "os_version": "{os_version}",
        "time_zone": "{time_zone}",
        "country": "{country}",
        "device_model": "{device_model}"
    }]
}
